tests/timing_test/6_final_test_input.vcd
$date
	Mon Feb 03 00:00:00 2026
$end
$version
	Test VCD for SKY130 timing simulation
$end
$timescale
	1ps
$end
$scope module openframe_project_wrapper $end
$var wire 1 ! por_l $end
$var wire 1 " porb_h $end
$var wire 1 # porb_l $end
$var wire 1 $ resetb_h $end
$var wire 1 % resetb_l $end
$var wire 44 & gpio_in $end
$var wire 44 ' gpio_in_h $end
$var wire 44 ( gpio_loopback_one $end
$var wire 44 ) gpio_loopback_zero $end
$var wire 32 * mask_rev $end
$upscope $end
$enddefinitions $end
#0
$dumpvars
1!
1"
1#
0$
0%
b00000000000000000000000000000000000000000000 &
b00000000000000000000000000000000000000000000 '
b00000000000000000000000000000000000000000000 (
b00000000000000000000000000000000000000000000 )
b00000000000000000000000000000000 *
$end
#10000
1$
1%
#12500
b00000000010000000000000000000000000000000000 &
#25000
b00000000000000000000000000000000000000000000 &
#37500
b00000000010000000000000000000000000000000000 &
#50000
b00000000000000000000000000000000000000000000 &
#62500
b00000000010000000000000000000000000000000000 &
#75000
b00000000000000000000000000000000000000000000 &
#87500
b00000000010000000000000000000000000000000000 &
#100000
b00000000000000000000000000000000000000000000 &
